[
  {
    "id": "3b9866f6-9793-20a6-5cbb-ef834bb02150",
    "name": "sections",
    "label": "Sections",
    "required": false,
    "locked": false,
    "occurrence": {
      "min": null,
      "max": null,
      "sorting_label_field": null,
      "default": 1
    },
    "children": [
      {
        "id": "2b6c8ec0-2b85-7a94-4be0-c5676e5a2344",
        "name": "image",
        "label": "Image",
        "required": false,
        "locked": false,
        "responsive": true,
        "resizable": true,
        "show_loading": true,
        "type": "image",
        "default": {
          "size_type": "auto",
          "src": "",
          "alt": null,
          "loading": "disabled"
        }
      },
      {
        "id": "a62219f2-8cc1-d465-053e-7ab425ca7438",
        "name": "header",
        "label": "Header",
        "required": false,
        "locked": false,
        "children": [
          {
            "id": "c9ffcdf4-921b-5674-1af1-d59f4b81f417",
            "name": "type",
            "label": "Type",
            "required": true,
            "locked": false,
            "display": "select",
            "choices": [
              ["btn", "Button"],
              ["cta", "HubSpot CTA"],
              ["none", "None"]
            ],
            "type": "choice",
            "default": "btn"
          },
          {
            "id": "f99ee6a0-0f2a-46f6-c0ae-384bdd26ae54",
            "name": "style",
            "label": "Style",
            "required": false,
            "locked": false,
            "display": "select",
            "choices": [
              ["filled", "Filled"],
              ["outlined", "Outlined"],
              ["arrow", "Arrow"]
            ],
            "type": "choice",
            "default": "arrow"
          },
          {
            "id": "48d722cb-6879-a4b1-0861-aca0d024d271",
            "name": "link",
            "label": "Link",
            "required": false,
            "locked": false,
            "validation_regex": "",
            "visibility": {
              "controlling_field": "c9ffcdf4-921b-5674-1af1-d59f4b81f417",
              "controlling_value_regex": "btn",
              "operator": "EQUAL",
              "access": null,
              "hidden_subfields": null
            },
            "allow_new_line": false,
            "show_emoji_picker": false,
            "type": "text",
            "default": "#"
          },
          {
            "id": "7ef99895-0529-7680-202e-adfbe32723a0",
            "name": "text",
            "label": "Text",
            "required": false,
            "locked": false,
            "validation_regex": "",
            "visibility": {
              "controlling_field": "c9ffcdf4-921b-5674-1af1-d59f4b81f417",
              "controlling_value_regex": "btn",
              "operator": "EQUAL",
              "access": null,
              "hidden_subfields": null
            },
            "allow_new_line": false,
            "show_emoji_picker": false,
            "type": "text",
            "default": "READ FULL CASE STUDY"
          },
          {
            "id": "beaff9f8-9b5d-16a3-8e7e-20914bde036a",
            "name": "cta",
            "label": "CTA",
            "required": false,
            "locked": false,
            "visibility": {
              "controlling_field": "c9ffcdf4-921b-5674-1af1-d59f4b81f417",
              "controlling_value_regex": "cta",
              "operator": "EQUAL",
              "access": null,
              "hidden_subfields": null
            },
            "type": "cta"
          }
        ],
        "tab": "CONTENT",
        "expanded": false,
        "type": "group",
        "default": {
          "type": "btn",
          "style": "arrow",
          "link": "#",
          "text": "READ FULL CASE STUDY"
        }
      },
      {
        "id": "c644d77b-0944-2a56-bb95-948d2404d698",
        "name": "content",
        "label": "Content",
        "required": false,
        "locked": false,
        "occurrence": {
          "min": null,
          "max": 3,
          "sorting_label_field": null,
          "default": 3
        },
        "type": "richtext",
        "default": [
          "<h5><span>SITUATION</span></h5>\n<p><span>For years, Logoipsum manually tracked marketing metrics using Excel, Google sheets, and complex macros</span></p>",
          "<h5><span>SITUATION</span></h5>\n<p><span>For years, Logoipsum manually tracked marketing metrics using Excel, Google sheets, and complex macros</span></p>",
          "<h5><span>SITUATION</span></h5>\n<p><span>For years, Logoipsum manually tracked marketing metrics using Excel, Google sheets, and complex macros</span></p>"
        ]
      }
    ],
    "tab": "CONTENT",
    "expanded": false,
    "type": "group",
    "default": [
      {
        "image": {
          "size_type": "auto",
          "src": "",
          "alt": null,
          "loading": "disabled"
        },
        "header": {
          "type": "btn",
          "style": "arrow",
          "link": "#",
          "text": "READ FULL CASE STUDY"
        },
        "content": [
          "<h5><span>SITUATION</span></h5>\n<p><span>For years, Logoipsum manually tracked marketing metrics using Excel, Google sheets, and complex macros</span></p>",
          "<h5><span>SITUATION</span></h5>\n<p><span>For years, Logoipsum manually tracked marketing metrics using Excel, Google sheets, and complex macros</span></p>",
          "<h5><span>SITUATION</span></h5>\n<p><span>For years, Logoipsum manually tracked marketing metrics using Excel, Google sheets, and complex macros</span></p>"
        ]
      }
    ]
  }
]
