[
  {
    "id": "e121d617-736b-f5c3-5619-9089f7a1f91c",
    "name": "logo",
    "label": "Logo",
    "required": false,
    "locked": false,
    "children": [
      {
        "id": "2e437009-4c5d-ab71-5e15-512097e59ec2",
        "name": "image",
        "label": "Image",
        "required": false,
        "locked": false,
        "responsive": true,
        "resizable": true,
        "show_loading": false,
        "type": "image",
        "default": {
          "size_type": "auto",
          "src": "",
          "alt": null
        }
      },
      {
        "id": "9c72435d-46f2-6062-2d3a-16725c5b28ad",
        "name": "type",
        "label": "Type",
        "required": true,
        "locked": false,
        "display": "select",
        "choices": [
          ["href", "Custom Link"],
          ["link", "HubSpot Link"]
        ],
        "type": "choice",
        "default": "href"
      },
      {
        "id": "52851bc6-5194-156f-c1b2-cad4a132eea3",
        "name": "link",
        "label": "Link",
        "required": false,
        "locked": false,
        "visibility": {
          "controlling_field": "9c72435d-46f2-6062-2d3a-16725c5b28ad",
          "controlling_value_regex": "link",
          "operator": "EQUAL",
          "access": null,
          "hidden_subfields": null
        },
        "supported_types": [
          "EXTERNAL",
          "CONTENT",
          "FILE",
          "EMAIL_ADDRESS",
          "BLOG"
        ],
        "type": "link",
        "default": {
          "url": {
            "type": "EXTERNAL",
            "href": "",
            "content_id": null
          },
          "open_in_new_tab": false,
          "no_follow": false
        }
      },
      {
        "id": "6940bae8-c7e9-d201-8e2a-e325c7c0d488",
        "name": "href",
        "label": "Href",
        "required": false,
        "locked": false,
        "validation_regex": "",
        "visibility": {
          "controlling_field": "9c72435d-46f2-6062-2d3a-16725c5b28ad",
          "controlling_value_regex": "href",
          "operator": "EQUAL",
          "access": null,
          "hidden_subfields": null
        },
        "placeholder": "#",
        "allow_new_line": false,
        "show_emoji_picker": false,
        "type": "text",
        "default": ""
      }
    ],
    "tab": "CONTENT",
    "expanded": false,
    "type": "group",
    "default": {
      "image": {
        "size_type": "auto",
        "src": "",
        "alt": null
      },
      "type": "href",
      "link": {
        "url": {
          "type": "EXTERNAL",
          "href": "",
          "content_id": null
        },
        "open_in_new_tab": false,
        "no_follow": false
      },
      "href": ""
    }
  },
  {
    "id": "9c705ba6-4dfc-dd6c-1cfd-6c1dfc20a290",
    "name": "menu",
    "label": "Menu",
    "required": false,
    "locked": false,
    "occurrence": {
      "min": null,
      "max": null,
      "sorting_label_field": null,
      "default": 4
    },
    "children": [
      {
        "id": "e81fd8da-bb9d-8855-2f29-790e93ca0d5d",
        "name": "title",
        "label": "Title",
        "required": false,
        "locked": false,
        "validation_regex": "",
        "placeholder": "PRODUCT",
        "allow_new_line": false,
        "show_emoji_picker": false,
        "type": "text",
        "default": "PRODUCT"
      },
      {
        "id": "10e03971-dbce-c5f8-93c3-42bff0a922db",
        "name": "description",
        "label": "Description",
        "required": false,
        "locked": false,
        "type": "richtext",
        "default": "<h2>Product at a glance</h2>\n<p>Short description of what this tab menu is about</p>"
      },
      {
        "id": "d9f55d3d-dc97-ce17-8b9f-945359066a24",
        "name": "link",
        "label": "Link",
        "required": false,
        "locked": false,
        "validation_regex": "",
        "allow_new_line": false,
        "show_emoji_picker": false,
        "type": "text",
        "default": ""
      },
      {
        "id": "18362216-c27e-da29-1f4d-1f67078b6be9",
        "name": "entries",
        "label": "Entries",
        "required": false,
        "locked": false,
        "occurrence": {
          "min": null,
          "max": null,
          "sorting_label_field": null,
          "default": 6
        },
        "children": [
          {
            "id": "7fc0e203-90b6-1ea1-7d47-b6842bcca00a",
            "name": "description",
            "label": "Description",
            "required": false,
            "locked": false,
            "type": "richtext",
            "default": "<h3>Platform</h3>\n<p>Feature flags, rollouts, and A/B tests for developers powered by Full Stack</p>"
          },
          {
            "id": "62157f91-a012-e552-6848-f0b95dff4e47",
            "name": "link",
            "label": "Link",
            "required": false,
            "locked": false,
            "validation_regex": "",
            "allow_new_line": false,
            "show_emoji_picker": false,
            "type": "text",
            "default": ""
          }
        ],
        "tab": "CONTENT",
        "type": "group",
        "default": [
          {
            "link": "",
            "description": "<h3>Platform</h3>\n<p>Feature flags, rollouts, and A/B tests for developers powered by Full Stack</p>"
          },
          {
            "link": "",
            "description": "<h3>Platform</h3>\n<p>Feature flags, rollouts, and A/B tests for developers powered by Full Stack</p>"
          },
          {
            "link": "",
            "description": "<h3>Platform</h3>\n<p>Feature flags, rollouts, and A/B tests for developers powered by Full Stack</p>"
          },
          {
            "link": "",
            "description": "<h3>Platform</h3>\n<p>Feature flags, rollouts, and A/B tests for developers powered by Full Stack</p>"
          },
          {
            "link": "",
            "description": "<h3>Platform</h3>\n<p>Feature flags, rollouts, and A/B tests for developers powered by Full Stack</p>"
          },
          {
            "link": "",
            "description": "<h3>Platform</h3>\n<p>Feature flags, rollouts, and A/B tests for developers powered by Full Stack</p>"
          }
        ]
      }
    ],
    "tab": "CONTENT",
    "type": "group",
    "default": [
      {
        "title": "PRODUCT",
        "description": "<h2>Product at a glance</h2>\n<p>Short description of what this tab menu is about</p>",
        "link": "",
        "entries": [
          {
            "link": "",
            "description": "<h3>Platform</h3>\n<p>Feature flags, rollouts, and A/B tests for developers powered by Full Stack</p>"
          },
          {
            "link": "",
            "description": "<h3>Platform</h3>\n<p>Feature flags, rollouts, and A/B tests for developers powered by Full Stack</p>"
          },
          {
            "link": "",
            "description": "<h3>Platform</h3>\n<p>Feature flags, rollouts, and A/B tests for developers powered by Full Stack</p>"
          },
          {
            "link": "",
            "description": "<h3>Platform</h3>\n<p>Feature flags, rollouts, and A/B tests for developers powered by Full Stack</p>"
          },
          {
            "link": "",
            "description": "<h3>Platform</h3>\n<p>Feature flags, rollouts, and A/B tests for developers powered by Full Stack</p>"
          },
          {
            "link": "",
            "description": "<h3>Platform</h3>\n<p>Feature flags, rollouts, and A/B tests for developers powered by Full Stack</p>"
          }
        ]
      },
      {
        "title": "PRODUCT",
        "description": "<h2>Product at a glance</h2>\n<p>Short description of what this tab menu is about</p>",
        "link": "",
        "entries": [
          {
            "link": "",
            "description": "<h3>Platform</h3>\n<p>Feature flags, rollouts, and A/B tests for developers powered by Full Stack</p>"
          },
          {
            "link": "",
            "description": "<h3>Platform</h3>\n<p>Feature flags, rollouts, and A/B tests for developers powered by Full Stack</p>"
          },
          {
            "link": "",
            "description": "<h3>Platform</h3>\n<p>Feature flags, rollouts, and A/B tests for developers powered by Full Stack</p>"
          },
          {
            "link": "",
            "description": "<h3>Platform</h3>\n<p>Feature flags, rollouts, and A/B tests for developers powered by Full Stack</p>"
          },
          {
            "link": "",
            "description": "<h3>Platform</h3>\n<p>Feature flags, rollouts, and A/B tests for developers powered by Full Stack</p>"
          },
          {
            "link": "",
            "description": "<h3>Platform</h3>\n<p>Feature flags, rollouts, and A/B tests for developers powered by Full Stack</p>"
          }
        ]
      },
      {
        "title": "PRODUCT",
        "description": "<h2>Product at a glance</h2>\n<p>Short description of what this tab menu is about</p>",
        "link": "",
        "entries": [
          {
            "link": "",
            "description": "<h3>Platform</h3>\n<p>Feature flags, rollouts, and A/B tests for developers powered by Full Stack</p>"
          },
          {
            "link": "",
            "description": "<h3>Platform</h3>\n<p>Feature flags, rollouts, and A/B tests for developers powered by Full Stack</p>"
          },
          {
            "link": "",
            "description": "<h3>Platform</h3>\n<p>Feature flags, rollouts, and A/B tests for developers powered by Full Stack</p>"
          },
          {
            "link": "",
            "description": "<h3>Platform</h3>\n<p>Feature flags, rollouts, and A/B tests for developers powered by Full Stack</p>"
          },
          {
            "link": "",
            "description": "<h3>Platform</h3>\n<p>Feature flags, rollouts, and A/B tests for developers powered by Full Stack</p>"
          },
          {
            "link": "",
            "description": "<h3>Platform</h3>\n<p>Feature flags, rollouts, and A/B tests for developers powered by Full Stack</p>"
          }
        ]
      },
      {
        "title": "PRODUCT",
        "description": "<h2>Product at a glance</h2>\n<p>Short description of what this tab menu is about</p>",
        "link": "",
        "entries": [
          {
            "link": "",
            "description": "<h3>Platform</h3>\n<p>Feature flags, rollouts, and A/B tests for developers powered by Full Stack</p>"
          },
          {
            "link": "",
            "description": "<h3>Platform</h3>\n<p>Feature flags, rollouts, and A/B tests for developers powered by Full Stack</p>"
          },
          {
            "link": "",
            "description": "<h3>Platform</h3>\n<p>Feature flags, rollouts, and A/B tests for developers powered by Full Stack</p>"
          },
          {
            "link": "",
            "description": "<h3>Platform</h3>\n<p>Feature flags, rollouts, and A/B tests for developers powered by Full Stack</p>"
          },
          {
            "link": "",
            "description": "<h3>Platform</h3>\n<p>Feature flags, rollouts, and A/B tests for developers powered by Full Stack</p>"
          },
          {
            "link": "",
            "description": "<h3>Platform</h3>\n<p>Feature flags, rollouts, and A/B tests for developers powered by Full Stack</p>"
          }
        ]
      }
    ]
  },
  {
    "id": "c0152a5f-59d7-c85a-fcd3-d4e22037881f",
    "name": "primary_cta",
    "label": "Primary CTA",
    "required": false,
    "locked": false,
    "children": [
      {
        "id": "6b8e8c9c-6ca0-185d-ba80-043566df29ec",
        "name": "type",
        "label": "Type",
        "required": true,
        "locked": false,
        "display": "select",
        "choices": [
          ["btn", "Button"],
          ["cta", "HubSpot CTA"],
          ["none", "None"]
        ],
        "type": "choice",
        "default": "btn"
      },
      {
        "id": "7a528494-617f-50ef-fe9c-9217e135a993",
        "name": "style",
        "label": "Style",
        "required": true,
        "locked": false,
        "visibility": {
          "controlling_field": "6b8e8c9c-6ca0-185d-ba80-043566df29ec",
          "controlling_value_regex": "btn",
          "operator": "EQUAL",
          "access": null,
          "hidden_subfields": null
        },
        "display": "select",
        "choices": [
          ["filled", "Filled"],
          ["outlined", "Outlined"],
          ["arrow", "Arrow"],
          ["inherit", "Inherit"]
        ],
        "type": "choice",
        "default": "inherit"
      },
      {
        "id": "db76661d-a004-f7ca-3fef-59284b2f9cc4",
        "name": "text",
        "label": "Text",
        "required": false,
        "locked": false,
        "validation_regex": "",
        "visibility": {
          "controlling_field": "6b8e8c9c-6ca0-185d-ba80-043566df29ec",
          "controlling_value_regex": "btn",
          "operator": "EQUAL",
          "access": null,
          "hidden_subfields": null
        },
        "placeholder": "SIGN IN",
        "allow_new_line": false,
        "show_emoji_picker": true,
        "type": "text",
        "default": "SIGN IN"
      },
      {
        "id": "9f093f80-d8c3-ddb5-3950-31e9d423a93d",
        "name": "link",
        "label": "Link",
        "required": false,
        "locked": false,
        "validation_regex": "",
        "visibility": {
          "controlling_field": "6b8e8c9c-6ca0-185d-ba80-043566df29ec",
          "controlling_value_regex": "btn",
          "operator": "EQUAL",
          "access": null,
          "hidden_subfields": null
        },
        "placeholder": "https://example.com",
        "allow_new_line": false,
        "show_emoji_picker": false,
        "type": "text",
        "default": "#"
      },
      {
        "id": "3152f85e-8420-23da-ad53-ad8693e7eed5",
        "name": "cta",
        "label": "CTA",
        "required": false,
        "locked": false,
        "visibility": {
          "controlling_field": "6b8e8c9c-6ca0-185d-ba80-043566df29ec",
          "controlling_value_regex": "cta",
          "operator": "EQUAL",
          "access": null,
          "hidden_subfields": null
        },
        "type": "cta"
      }
    ],
    "tab": "CONTENT",
    "expanded": false,
    "type": "group",
    "default": {
      "type": "btn",
      "style": "inherit",
      "text": "SIGN IN",
      "link": "#"
    }
  },
  {
    "id": "d768f108-1524-7e5c-589d-7dda9db7f67a",
    "name": "secondary_cta",
    "label": "Secondary CTA",
    "required": false,
    "locked": false,
    "children": [
      {
        "id": "280cfa1e-3ef0-0d34-d558-9e60b7430e16",
        "name": "type",
        "label": "Type",
        "required": true,
        "locked": false,
        "display": "select",
        "choices": [
          ["btn", "Button"],
          ["cta", "HubSpot CTA"],
          ["none", "None"]
        ],
        "type": "choice",
        "default": "btn"
      },
      {
        "id": "0666906f-ea7e-2789-a2c8-afbf13404588",
        "name": "style",
        "label": "Style",
        "required": true,
        "locked": false,
        "visibility": {
          "controlling_field": "280cfa1e-3ef0-0d34-d558-9e60b7430e16",
          "controlling_value_regex": "btn",
          "operator": "EQUAL",
          "access": null,
          "hidden_subfields": null
        },
        "display": "select",
        "choices": [
          ["filled", "Filled"],
          ["outlined", "Outlined"],
          ["arrow", "Arrow"],
          ["inherit", "Inherit"]
        ],
        "type": "choice",
        "default": "filled"
      },
      {
        "id": "4a0718fa-ee88-6b0a-7850-b424ac053770",
        "name": "text",
        "label": "Text",
        "required": false,
        "locked": false,
        "validation_regex": "",
        "visibility": {
          "controlling_field": "280cfa1e-3ef0-0d34-d558-9e60b7430e16",
          "controlling_value_regex": "btn",
          "operator": "EQUAL",
          "access": null,
          "hidden_subfields": null
        },
        "placeholder": "GET A DEMO",
        "allow_new_line": false,
        "show_emoji_picker": true,
        "type": "text",
        "default": "GET A DEMO"
      },
      {
        "id": "0c125450-4cc4-9f99-5922-9b5a8c075e95",
        "name": "link",
        "label": "Link",
        "required": false,
        "locked": false,
        "validation_regex": "",
        "visibility": {
          "controlling_field": "280cfa1e-3ef0-0d34-d558-9e60b7430e16",
          "controlling_value_regex": "btn",
          "operator": "EQUAL",
          "access": null,
          "hidden_subfields": null
        },
        "placeholder": "https://example.com",
        "allow_new_line": false,
        "show_emoji_picker": false,
        "type": "text",
        "default": "#"
      },
      {
        "id": "secondary_cta.cta",
        "name": "cta",
        "label": "CTA",
        "required": false,
        "locked": false,
        "visibility": {
          "controlling_field": "280cfa1e-3ef0-0d34-d558-9e60b7430e16",
          "controlling_value_regex": "cta",
          "operator": "EQUAL",
          "access": null,
          "hidden_subfields": null
        },
        "type": "cta"
      }
    ],
    "tab": "CONTENT",
    "expanded": false,
    "type": "group",
    "default": {
      "type": "btn",
      "style": "filled",
      "text": "GET A DEMO",
      "link": "#"
    }
  }
]
