{
  "label": "Atlas by Kalungi CCD Fork",
  "preview_path": "./templates/home.html",
  "screenshot_path": "./images/template-previews/home.png",
  "enable_domain_stylesheets": false,
  "documentation_url": "https://hubspot-developers-15sxmmy-8823337.hs-sites.com/documentation",
  "example_url": "https://hubspot-developers-15sxmmy-8823337.hs-sites.com/home"
}
